﻿Energy Source,IPCC,IPCC LCA,BMWI,UBA,LCA Mean,LCA Low,LCA High
Pumped Storage consumption,0,0,0,0,0,0,0
Import Balance,0,0,0,0,0,0,0
Hydro Power,0,0.024,0,0,0.026,0.002,0.237
Biomass,0,0,0.329436,0,0.045,0.01,0.101
Nuclear,0,0,0,0,0.029,0.002,0.13
Fossil Brown Coal,0.364,0.375,1.020421261,0.3564648,1.054,0.79,1.372
Fossil Hard Coal,0.354,0.393,0.809498111,0.342396,0.888,0.756,1.31
Fossil Oil,0.267,0.305,0.883704489,0.266472,0.733,0.547,0.935
Fossil Gas,0.202,0.237,0.327171602,0.2005848,0.499,0.362,0.891
Others,0,0,0.054158143,0,0,0,0
Hydro Pumped Storage,0,0,0,0,0,0,0
Hydro Seasonal Storage,0,0,0,0,0,0,0
Wind,0,0.07,0,0,0.026,0.006,0.124
Solar,0,0.02,0,0,0.085,0.013,0.731
Load,0,0,0,0,0,0,0
Residual load,0,0,0,0,0,0,0
Renewable Share,0,0,0,0,0,0,0
# ton CO2/MWh,,,,,,,
# brown Coal = Lignite,,,,,,,
# hard coal = antracite,,,,,,,
"# 1 and 2  Standard CO2 emission factors (from IPCC, 2006) and CO2-equivalent LCA emission factors (from ELCD)
for most common fuel types",,,,,,,
