﻿Name_DE,Format,Name
Datum,xx:xx:xxxx,Date
Uhrzeit,xx:xx:xx,Time
Windgeschw.,m/s,Wind Speed
Temperatur,°C,Temperature
Gefühlte Temperatur,°C,Feeling Temperatrue
Lichtstärke,Lx,Luminosity
relative Feuchte,%,Relative Humidity
Windrichtung,°,Wind Speed Direction
Strahlung,W/m²,Solar Radiation
Niederschlag heute,mm,Precipitation
Luftdruck,hPa,Air Pressure
Sonne Elevation,Grad,Solar Elevation
Sonne Azimut,Grad,Solar Azimut
Hochrechnung Regen/Stunde,mm/h,Hourly Precipitation
Taupunkt,°C,Condensation Point
Lichtstärke Nord,Lux,Luminosity North
Lichtstärke Ost,Lux,Luminosity East
Lichtstärke Süd,Lux,Luminosity South
Lichtstärke West,Lux,Luminosity East
Richtung mittlere Lichtstärke,°,Luminosity Orientation
Relativer Luftdruck,hPa,Relative Air Pressure
Regenart,1,Rain type
